<?xml version="1.0" encoding="UTF-8"?>
<!-- Generator: Adobe Illustrator 16.0.0, SVG Export Plug-In . SVG Version: 6.00 Build 0)  -->
<!DOCTYPE svg PUBLIC "-//W3C//DTD SVG 1.1//EN" "http://www.w3.org/Graphics/SVG/1.1/DTD/svg11.dtd">
<svg version="1.1" id="Layer_1" xmlns="http://www.w3.org/2000/svg" xmlns:xlink="http://www.w3.org/1999/xlink" x="0px" y="0px" width="150px" height="34px" viewBox="0.542 0.25 150 34" enable-background="new 0.542 0.25 150 34" xml:space="preserve">
<g>
	<path opacity="0.5" fill="#FFFFFF" enable-background="new    " d="M19.68,3.25h-1.495c-0.343,0-0.716,0.25-0.872,0.748   l-7.225,20.057c-0.343,0.996,0.405,0.996,0.778,0.996h1.433c0.343,0,0.592,0,0.872-0.746l7.288-20.061   C20.801,3.25,20.053,3.25,19.68,3.25z"/>
	<path fill="#FFFFFF" d="M29.744,3.25c-4.64,0-6.479,3.145-6.479,7.1v8.066c0,3.955,1.838,7.066,6.479,7.066   c4.64,0,6.447-3.111,6.447-7.066V10.35C36.19,6.395,34.383,3.25,29.744,3.25z M33.169,18.417c0,2.865-1.308,4.11-3.426,4.11   c-2.118,0-3.457-1.245-3.457-4.11v-8.065c0-2.866,1.339-4.143,3.457-4.143c2.118,0,3.426,1.276,3.426,4.143V18.417z"/>
	<path fill="#FFFFFF" d="M53.229,3.25H42.018c-0.903,0-0.903,0.904-0.903,0.904v1.183c0,0,0,0.872,0.903,0.872h4.08v17.938   c0,0.904,0.903,0.904,0.903,0.904h1.246c0,0,0.872,0,0.872-0.904V6.209h4.111c0.903,0,0.903-0.902,0.903-0.902V4.123   C54.131,4.123,54.131,3.25,53.229,3.25z"/>
	<path fill="#FFFFFF" d="M71.794,17.514h-1.246c0,0-0.873,0-0.873,0.902c0,2.865-1.246,4.109-3.363,4.109   c-2.396,0-3.488-1.215-3.488-4.109V10.35c0-2.896,1.093-4.142,3.488-4.142c1.994,0,3.084,1.151,3.271,2.989   c0.094,0.529,0.688,0.841,1.275,0.686l1.09-0.279c0.594-0.188,0.688-0.687,0.623-1.06c-0.438-2.896-2.211-5.294-6.26-5.294   c-4.3,0-6.511,2.989-6.511,7.1v8.066c0,4.109,2.211,7.066,6.511,7.066c4.643,0,6.385-3.111,6.385-7.066   C72.696,17.514,71.794,17.514,71.794,17.514z"/>
	<path fill="#FFFFFF" d="M92.102,3.25h-1.215c0,0-0.871,0-0.871,0.904v8.128h-6.884V4.154c0-0.904-0.934-0.904-0.934-0.904h-1.216   c0,0-0.873,0-0.873,0.904v19.992c0,0.904,0.9,0.904,0.9,0.904h1.219c0,0,0.898,0,0.898-0.904v-8.905h6.883v8.905   c0,0.904,0.902,0.904,0.902,0.904h1.215c0,0,0.9,0,0.9-0.904V4.154C93.036,3.25,92.102,3.25,92.102,3.25z"/>
	<path fill="#FFFFFF" d="M116.363,24.059l-5.604-20.061c-0.219-0.748-0.934-0.748-0.934-0.748h-2.587c0,0-0.688,0-0.901,0.748   l-5.668,20.061c-0.28,0.996,0.746,0.996,0.746,0.996h1.465c0.312,0,0.687-0.25,0.841-0.748l1.559-6.014h6.539l1.465,6.014   c0.154,0.498,0.529,0.748,0.871,0.748h1.438C115.587,25.055,116.646,25.055,116.363,24.059z M106.057,15.338l2.461-9.125h0.062   l2.43,9.125H106.057z"/>
	<path fill="#FFFFFF" d="M15.222,3.25h-1.495c-0.343,0-0.716,0.25-0.872,0.748l-4.04,11.213L4.774,3.998   C4.619,3.5,4.246,3.25,3.902,3.25H2.408c-0.374,0-1.121,0-0.778,0.997l5.591,15.39l-1.592,4.418   c-0.343,0.996,0.405,0.996,0.778,0.996h1.433c0.343,0,0.592,0,0.872-0.746L16,4.247C16.342,3.25,15.595,3.25,15.222,3.25z"/>
	<g>
		<path fill="#FFFFFF" d="M119.316,10.407V3.25h2.686c0.547,0,0.984,0.071,1.316,0.217c0.33,0.145,0.589,0.367,0.774,0.668    c0.188,0.302,0.281,0.617,0.281,0.945c0,0.307-0.083,0.594-0.249,0.864s-0.417,0.488-0.752,0.654    c0.434,0.127,0.766,0.343,0.999,0.649c0.231,0.305,0.349,0.666,0.349,1.084c0,0.334-0.07,0.646-0.212,0.935    c-0.143,0.288-0.317,0.51-0.524,0.667c-0.209,0.156-0.471,0.273-0.783,0.354c-0.314,0.08-0.699,0.12-1.155,0.12H119.316z     M120.264,6.256h1.549c0.42,0,0.721-0.027,0.902-0.082c0.241-0.072,0.422-0.19,0.545-0.356c0.121-0.166,0.184-0.375,0.184-0.625    c0-0.237-0.058-0.446-0.172-0.627c-0.113-0.181-0.275-0.304-0.487-0.371s-0.574-0.101-1.089-0.101h-1.432V6.256z M120.264,9.562    h1.782c0.306,0,0.521-0.012,0.646-0.034c0.218-0.039,0.399-0.104,0.547-0.194c0.146-0.092,0.267-0.225,0.361-0.398    c0.094-0.174,0.142-0.375,0.142-0.604c0-0.267-0.068-0.498-0.205-0.695c-0.138-0.197-0.326-0.336-0.568-0.416    c-0.243-0.079-0.592-0.119-1.048-0.119h-1.654v2.461H120.264z"/>
		<path fill="#FFFFFF" d="M127.045,10.407V3.25h5.176v0.844h-4.229v2.192h3.96v0.841h-3.96v2.437h4.395v0.845L127.045,10.407    L127.045,10.407z"/>
		<path fill="#FFFFFF" d="M136.518,10.407V4.094h-2.358V3.25h5.674v0.844h-2.368v6.313H136.518z"/>
		<path fill="#FFFFFF" d="M140.275,10.407l2.748-7.157h1.021l2.93,7.157h-1.078l-0.836-2.168h-2.992l-0.786,2.168H140.275z     M142.341,7.467h2.427l-0.746-1.981c-0.229-0.603-0.397-1.097-0.508-1.483c-0.092,0.459-0.221,0.914-0.387,1.366L142.341,7.467z"/>
	</g>
</g>
</svg>