<?xml version="1.0" encoding="utf-8"?>
<!-- Generator: Adobe Illustrator 16.0.0, SVG Export Plug-In . SVG Version: 6.00 Build 0)  -->
<!DOCTYPE svg PUBLIC "-//W3C//DTD SVG 1.1//EN" "http://www.w3.org/Graphics/SVG/1.1/DTD/svg11.dtd">
<svg version="1.1" id="Layer_1" xmlns="http://www.w3.org/2000/svg" xmlns:xlink="http://www.w3.org/1999/xlink" x="0px" y="0px"
	 width="50px" height="50px" viewBox="0 0 50 50" enable-background="new 0 0 50 50" xml:space="preserve">
<g>
	
		<line fill="none" stroke="#A9B9B9" stroke-width="2" stroke-linecap="round" stroke-linejoin="round" stroke-miterlimit="10" x1="42.85" y1="14.325" x2="42.85" y2="35.675"/>
	<path fill="none" stroke="#A9B9B9" stroke-width="2" stroke-linecap="round" stroke-linejoin="round" stroke-miterlimit="10" d="
		M28.25,25.525c0,0,0-0.454,0-2c0-1.547,1.254-2.801,2.8-2.801c0.805,0,7.874,0,11.15,0"/>
	<path fill="none" stroke="#A9B9B9" stroke-width="2" stroke-linecap="round" stroke-linejoin="round" stroke-miterlimit="10" d="
		M42.2,25.575H10.05c-1.2,0-2.899,0.649-2.899,2.45c0,1.8,0,7.25,0,7.25"/>
	
		<line fill="none" stroke="#A9B9B9" stroke-width="2" stroke-linecap="round" stroke-linejoin="round" stroke-miterlimit="10" x1="7.15" y1="31.975" x2="42.2" y2="31.975"/>
</g>
</svg>
