<?xml version="1.0" encoding="utf-8"?>
<!-- Generator: Adobe Illustrator 16.0.0, SVG Export Plug-In . SVG Version: 6.00 Build 0)  -->
<!DOCTYPE svg PUBLIC "-//W3C//DTD SVG 1.1//EN" "http://www.w3.org/Graphics/SVG/1.1/DTD/svg11.dtd">
<svg version="1.1" id="Layer_1" xmlns="http://www.w3.org/2000/svg" xmlns:xlink="http://www.w3.org/1999/xlink" x="0px" y="0px"
	 width="76.178px" height="76.109px" viewBox="0 0 76.178 76.109" enable-background="new 0 0 76.178 76.109" xml:space="preserve">
<path fill="#E8F0F1" d="M3.052,38.052c0-23.353,11.679-35.032,35.037-35.032c23.36,0,35.038,11.683,35.038,35.032
	c0,23.355-11.678,35.038-35.038,35.038C14.729,73.091,3.052,61.409,3.052,38.052z"/>
<polygon fill="none" stroke="#00C5B4" stroke-width="3" stroke-linecap="round" stroke-linejoin="round" stroke-miterlimit="10" points="
	49.05,54.338 37.923,48.332 26.667,54.095 28.939,41.656 19.98,32.732 32.513,31.05 38.231,19.772 43.704,31.17 56.198,33.124 
	47.048,41.851 "/>
</svg>
