<?xml version="1.0" encoding="utf-8"?>
<!-- Generator: Adobe Illustrator 16.0.0, SVG Export Plug-In . SVG Version: 6.00 Build 0)  -->
<!DOCTYPE svg PUBLIC "-//W3C//DTD SVG 1.1//EN" "http://www.w3.org/Graphics/SVG/1.1/DTD/svg11.dtd">
<svg version="1.1" id="Layer_1" xmlns="http://www.w3.org/2000/svg" xmlns:xlink="http://www.w3.org/1999/xlink" x="0px" y="0px"
	 width="18px" height="18px" viewBox="0 0 18 18" enable-background="new 0 0 18 18" xml:space="preserve">
<g id="Facebook_5_">
	<path fill="#43619C" d="M9,0.562C4.328,0.562,0.562,4.328,0.562,9S4.328,17.438,9,17.438S17.438,13.672,17.438,9
		S13.672,0.562,9,0.562z M13.141,12.547c0,0.25-0.094,0.438-0.359,0.438h-2.125V9.859h1.062l0.172-1.328h-1.234V7.859
		c0-0.375,0.109-0.656,0.594-0.656h0.734V6.141c-0.219-0.031-0.562-0.047-1.016-0.047c-0.922,0-1.641,0.578-1.641,1.625v0.812H8.219
		v1.328h1.109v3.125H5.5c-0.25,0-0.391-0.172-0.391-0.438v-7.25c0-0.25,0.141-0.562,0.391-0.562h7.25
		c0.25,0,0.391,0.312,0.391,0.562V12.547L13.141,12.547z"/>
</g>
</svg>
