<?xml version="1.0" encoding="utf-8"?>
<!-- Generator: Adobe Illustrator 16.0.0, SVG Export Plug-In . SVG Version: 6.00 Build 0)  -->
<!DOCTYPE svg PUBLIC "-//W3C//DTD SVG 1.1//EN" "http://www.w3.org/Graphics/SVG/1.1/DTD/svg11.dtd">
<svg version="1.1" id="Layer_1" xmlns="http://www.w3.org/2000/svg" xmlns:xlink="http://www.w3.org/1999/xlink" x="0px" y="0px"
	 width="34px" height="34px" viewBox="0 0 34 34" enable-background="new 0 0 34 34" xml:space="preserve">
<path opacity="0.5" fill="#FFFFFF" enable-background="new    " d="M21.536,0.918h-2.186c-0.501,0-1.048,0.364-1.274,1.094
	L7.516,31.326c-0.502,1.456,0.592,1.456,1.139,1.456h2.094c0.501,0,0.865,0,1.274-1.091l10.651-29.32
	C23.174,0.918,22.082,0.918,21.536,0.918z"/>
<g id="layer1_1_" transform="translate(-256.6798,-531.7963)">
	<path id="text5540_1_" fill="#FFFFFF" d="M283.968,544.092h-1.008c0.147-0.688,0.218-1.313,0.218-1.874v-6.669
		c0-0.693,0.062-1.209,0.185-1.551c0.127-0.339,0.371-0.637,0.728-0.893c0.365-0.263,0.817-0.393,1.361-0.393
		c0.644,0,1.185,0.17,1.622,0.513c0.44,0.34,0.66,0.822,0.66,1.453c0,0.733-0.349,1.337-1.047,1.809
		c1.043,0.489,1.56,1.258,1.56,2.308c0,0.573-0.139,1.083-0.412,1.539c-0.276,0.447-0.592,0.768-0.957,0.96
		c-0.36,0.192-0.787,0.288-1.292,0.288c-0.574,0-1.036-0.215-1.395-0.643v1.139C284.19,542.863,284.115,543.536,283.968,544.092
		 M284.19,540.389c0.316,0.526,0.763,0.79,1.335,0.79c0.551,0,0.954-0.2,1.214-0.601c0.255-0.404,0.385-0.891,0.385-1.47
		c0-0.44-0.086-0.891-0.258-1.347c-0.167-0.46-0.385-0.812-0.648-1.053c-0.246,0.062-0.463,0.091-0.658,0.091
		c-0.417,0-0.622-0.107-0.622-0.325c0-0.195,0.173-0.294,0.519-0.294c0.215,0,0.485,0.049,0.81,0.147
		c0.285-0.49,0.434-1.023,0.434-1.597c0-0.515-0.11-0.91-0.341-1.185c-0.223-0.273-0.518-0.409-0.88-0.409
		c-0.289,0-0.541,0.081-0.75,0.244c-0.207,0.164-0.346,0.36-0.422,0.589c-0.077,0.225-0.116,0.592-0.116,1.108V540.389"/>
</g>
<path fill="#FFFFFF" d="M21.536,0.918h-2.186c-0.501,0-1.048,0.366-1.274,1.094L7.516,31.328c-0.502,1.457,0.592,1.457,1.139,1.457
	h2.094c0.501,0,0.865,0,1.274-1.092L22.674,2.371C23.174,0.918,22.082,0.918,21.536,0.918z"/>
<linearGradient id="SVGID_1_" gradientUnits="userSpaceOnUse" x1="889.7666" y1="-1113.0996" x2="905.7534" y2="-1129.0865" gradientTransform="matrix(1 0 0 -1 -891 -1109)">
	<stop  offset="0.5042" style="stop-color:#FFFFFF"/>
	<stop  offset="1" style="stop-color:#FFFFFF;stop-opacity:0.25"/>
</linearGradient>
<path fill="url(#SVGID_1_)" d="M12.192,18.466L6.237,2.021C6.009,1.287,5.46,0.918,4.952,0.918H2.754c-0.55,0-1.649,0-1.147,1.467
	l8.223,22.626L12.192,18.466z"/>
</svg>
