<?xml version="1.0" encoding="utf-8"?>
<!-- Generator: Adobe Illustrator 16.0.0, SVG Export Plug-In . SVG Version: 6.00 Build 0)  -->
<!DOCTYPE svg PUBLIC "-//W3C//DTD SVG 1.1//EN" "http://www.w3.org/Graphics/SVG/1.1/DTD/svg11.dtd">
<svg version="1.1" id="Layer_1" xmlns="http://www.w3.org/2000/svg" xmlns:xlink="http://www.w3.org/1999/xlink" x="0px" y="0px"
	 width="150px" height="34px" viewBox="0 0 150 34" enable-background="new 0 0 150 34" xml:space="preserve">
<g>
	<path fill="#FFFFFF" d="M29.744,5.93c-4.64,0-6.479,3.146-6.479,7.102v8.064c0,3.955,1.838,7.066,6.479,7.066
		c4.64,0,6.447-3.111,6.447-7.066v-8.064C36.19,9.075,34.383,5.93,29.744,5.93z M33.169,21.098c0,2.864-1.308,4.109-3.426,4.109
		c-2.118,0-3.457-1.245-3.457-4.109v-8.064c0-2.866,1.339-4.145,3.457-4.145c2.118,0,3.426,1.276,3.426,4.145V21.098z"/>
	<path fill="#FFFFFF" d="M53.229,5.93H42.018c-0.903,0-0.903,0.904-0.903,0.904v1.183c0,0,0,0.872,0.903,0.872h4.08v17.938
		c0,0.904,0.903,0.904,0.903,0.904h1.246c0,0,0.872,0,0.872-0.904V8.889h4.111c0.903,0,0.903-0.9,0.903-0.9V6.803
		C54.131,6.803,54.131,5.93,53.229,5.93z"/>
	<path fill="#FFFFFF" d="M71.794,20.193h-1.246c0,0-0.873,0-0.873,0.902c0,2.864-1.246,4.108-3.363,4.108
		c-2.396,0-3.488-1.216-3.488-4.108V13.03c0-2.896,1.093-4.144,3.488-4.144c1.994,0,3.084,1.151,3.271,2.989
		c0.094,0.529,0.688,0.841,1.275,0.687l1.09-0.278c0.594-0.188,0.688-0.688,0.623-1.062c-0.438-2.896-2.211-5.294-6.26-5.294
		c-4.3,0-6.511,2.989-6.511,7.102v8.065c0,4.108,2.211,7.064,6.511,7.064c4.643,0,6.385-3.109,6.385-7.064
		C72.696,20.193,71.794,20.193,71.794,20.193z"/>
	<path fill="#FFFFFF" d="M92.102,5.93h-1.215c0,0-0.871,0-0.871,0.904v8.128h-6.884V6.833c0-0.904-0.934-0.904-0.934-0.904h-1.216
		c0,0-0.873,0-0.873,0.904v19.993c0,0.902,0.897,0.902,0.897,0.902h1.222c0,0,0.896,0,0.896-0.902v-8.905h6.883v8.905
		c0,0.902,0.902,0.902,0.902,0.902h1.215c0,0,0.897,0,0.897-0.902V6.833C93.036,5.93,92.102,5.93,92.102,5.93z"/>
	<path fill="#FFFFFF" d="M116.363,26.738l-5.604-20.062c-0.219-0.748-0.934-0.748-0.934-0.748h-2.587c0,0-0.688,0-0.901,0.748
		l-5.668,20.062c-0.28,0.996,0.746,0.996,0.746,0.996h1.465c0.312,0,0.687-0.25,0.841-0.748l1.559-6.015h6.539l1.468,6.015
		c0.151,0.498,0.526,0.748,0.868,0.748h1.438C115.587,27.734,116.646,27.734,116.363,26.738z M106.057,18.018l2.461-9.126h0.062
		l2.43,9.126H106.057z"/>
	<g id="layer1" transform="translate(-256.6798,-531.7963)">
		<path id="text5540" fill="#FFFFFF" d="M376.682,548.845h-0.967c0.141-0.66,0.211-1.258,0.211-1.793v-6.381
			c0-0.664,0.059-1.158,0.176-1.482c0.121-0.324,0.354-0.608,0.697-0.854c0.348-0.25,0.781-0.375,1.301-0.375
			c0.617,0,1.135,0.164,1.553,0.491c0.422,0.324,0.633,0.787,0.633,1.391c0,0.702-0.334,1.278-1.002,1.729
			c0.996,0.47,1.494,1.205,1.494,2.209c0,0.547-0.133,1.037-0.396,1.472c-0.264,0.431-0.564,0.735-0.914,0.92
			c-0.344,0.185-0.756,0.274-1.234,0.274c-0.549,0-0.992-0.205-1.336-0.614v1.091C376.893,547.667,376.822,548.31,376.682,548.845
			 M376.893,545.3c0.305,0.504,0.73,0.756,1.277,0.756c0.527,0,0.914-0.191,1.16-0.574c0.246-0.387,0.369-0.854,0.369-1.406
			c0-0.422-0.082-0.852-0.246-1.288c-0.16-0.44-0.367-0.776-0.621-1.009c-0.234,0.061-0.445,0.088-0.633,0.088
			c-0.396,0-0.592-0.104-0.592-0.311c0-0.188,0.166-0.281,0.498-0.281c0.207,0,0.465,0.047,0.771,0.142
			c0.275-0.47,0.416-0.979,0.416-1.528c0-0.492-0.107-0.869-0.328-1.131c-0.215-0.263-0.496-0.395-0.844-0.395
			c-0.277,0-0.518,0.078-0.717,0.234c-0.193,0.156-0.33,0.344-0.402,0.562c-0.074,0.216-0.11,0.567-0.11,1.062L376.893,545.3"/>
	</g>
	<path opacity="0.5" fill="#FFFFFF" enable-background="new    " d="M19.728,5.838h-1.507c-0.346,0-0.723,0.251-0.879,0.754
		l-7.283,20.217c-0.346,1.004,0.408,1.004,0.785,1.004h1.444c0.346,0,0.597,0,0.879-0.752L20.513,6.84
		C20.857,5.838,20.104,5.838,19.728,5.838z"/>
	<path fill="#FFFFFF" enable-background="new    " d="M19.728,5.838h-1.507c-0.346,0-0.723,0.252-0.879,0.754L10.059,26.81
		c-0.346,1.005,0.408,1.005,0.785,1.005h1.444c0.346,0,0.597,0,0.879-0.753L20.513,6.84C20.857,5.838,20.104,5.838,19.728,5.838z"/>
	
		<linearGradient id="SVGID_1_" gradientUnits="userSpaceOnUse" x1="598.0254" y1="765.0312" x2="609.0511" y2="776.057" gradientTransform="matrix(1 0 0 1 -594 -757)">
		<stop  offset="0.5042" style="stop-color:#FFFFFF"/>
		<stop  offset="1" style="stop-color:#FFFFFF;stop-opacity:0.25"/>
	</linearGradient>
	<path fill="url(#SVGID_1_)" d="M13.284,17.939L9.177,6.598c-0.157-0.506-0.536-0.76-0.886-0.76H6.774c-0.379,0-1.138,0-0.791,1.011
		l5.671,15.604L13.284,17.939z"/>
</g>
</svg>
