<?xml version="1.0" encoding="utf-8"?>
<!-- Generator: Adobe Illustrator 16.0.0, SVG Export Plug-In . SVG Version: 6.00 Build 0)  -->
<!DOCTYPE svg PUBLIC "-//W3C//DTD SVG 1.1//EN" "http://www.w3.org/Graphics/SVG/1.1/DTD/svg11.dtd">
<svg version="1.1" id="Layer_1" xmlns="http://www.w3.org/2000/svg" xmlns:xlink="http://www.w3.org/1999/xlink" x="0px" y="0px"
	 width="18px" height="18px" viewBox="0 0 18 18" enable-background="new 0 0 18 18" xml:space="preserve">
<g>
	<circle fill="none" stroke="#00C5B4" stroke-width="2.0777" stroke-miterlimit="10" cx="6.903" cy="7.037" r="5.228"/>
	
		<line fill="#FFFFFF" stroke="#00C5B4" stroke-width="2.0777" stroke-miterlimit="10" x1="10.676" y1="10.542" x2="16.325" y2="16.191"/>
</g>
</svg>
