<?xml version="1.0" encoding="utf-8"?>
<!-- Generator: Adobe Illustrator 16.0.0, SVG Export Plug-In . SVG Version: 6.00 Build 0)  -->
<!DOCTYPE svg PUBLIC "-//W3C//DTD SVG 1.1//EN" "http://www.w3.org/Graphics/SVG/1.1/DTD/svg11.dtd">
<svg version="1.1" id="Layer_1" xmlns="http://www.w3.org/2000/svg" xmlns:xlink="http://www.w3.org/1999/xlink" x="0px" y="0px"
	 width="32px" height="32px" viewBox="0 0 32 32" enable-background="new 0 0 32 32" xml:space="preserve">
<g>
	<path fill="#00A894" d="M16.062,28.445c0,0-2.677-4.676-6.778-8.777s17.602-4.045,13.557,0S16.062,28.445,16.062,28.445z"/>
</g>
<g>
	<circle fill="#00C5B4" cx="16.063" cy="13.042" r="8.861"/>
	<path fill="#00A894" d="M16.063,22.522c-5.228,0-9.481-4.253-9.481-9.48s4.253-9.481,9.481-9.481s9.481,4.253,9.481,9.481
		S21.291,22.522,16.063,22.522z M16.063,4.801c-4.544,0-8.241,3.697-8.241,8.241s3.697,8.24,8.241,8.24s8.241-3.696,8.241-8.24
		S20.607,4.801,16.063,4.801z"/>
</g>
<g>
	<path fill="#FFFFFF" d="M21.557,13.792c-0.414,0-0.75-0.336-0.75-0.75c0-2.616-2.127-4.744-4.743-4.744
		c-0.414,0-0.75-0.336-0.75-0.75s0.336-0.75,0.75-0.75c3.442,0,6.243,2.801,6.243,6.244C22.307,13.456,21.971,13.792,21.557,13.792z
		"/>
</g>
</svg>
