<?xml version="1.0" encoding="utf-8"?>
<!-- Generator: Adobe Illustrator 16.0.0, SVG Export Plug-In . SVG Version: 6.00 Build 0)  -->
<!DOCTYPE svg PUBLIC "-//W3C//DTD SVG 1.1//EN" "http://www.w3.org/Graphics/SVG/1.1/DTD/svg11.dtd">
<svg version="1.1" id="Layer_1" xmlns="http://www.w3.org/2000/svg" xmlns:xlink="http://www.w3.org/1999/xlink" x="0px" y="0px"
	 width="64px" height="64px" viewBox="0 0 64 64" enable-background="new 0 0 64 64" xml:space="preserve">
<g>
	<g>
		<path fill="#FEC74F" d="M31.2,1.119c-16.701,0-30.24,13.539-30.24,30.24C0.96,48.061,14.499,61.6,31.2,61.6
			c16.7,0,30.239-13.539,30.239-30.24S47.9,1.119,31.2,1.119z"/>
	</g>
	<g>
		<path fill="#000222" d="M29.125,42.875h-4.25v-21.75h4.25V42.875z M39.125,42.875h-4.25v-21.75h4.25V42.875z"/>
	</g>
</g>
</svg>
