<?xml version="1.0" encoding="utf-8"?>
<!-- Generator: Adobe Illustrator 16.0.0, SVG Export Plug-In . SVG Version: 6.00 Build 0)  -->
<!DOCTYPE svg PUBLIC "-//W3C//DTD SVG 1.1//EN" "http://www.w3.org/Graphics/SVG/1.1/DTD/svg11.dtd">
<svg version="1.1" id="Layer_1" xmlns="http://www.w3.org/2000/svg" xmlns:xlink="http://www.w3.org/1999/xlink" x="0px" y="0px"
	 width="18px" height="18px" viewBox="0 0 18 18" enable-background="new 0 0 18 18" xml:space="preserve">
<g id="Twitter_6_">
	<path fill="#CF1913" d="M9,0.562c4.672,0,8.438,3.766,8.438,8.438S13.672,17.438,9,17.438c-4.656,0-8.438-3.766-8.438-8.438
		S4.344,0.562,9,0.562z"/>
	<path fill="#FFFFFF" d="M7.157,13.341c-0.079-0.263-0.104-1.12,0.035-1.61c0.105-0.42,0.665-2.801,0.665-2.801
		S7.683,8.58,7.683,8.09c0-0.77,0.455-1.365,1.015-1.365c0.49,0,0.7,0.35,0.7,0.805c0,0.49-0.315,1.19-0.455,1.854
		c-0.14,0.561,0.28,1.016,0.84,1.016c0.98,0,1.75-1.05,1.75-2.555c0-1.33-0.979-2.275-2.345-2.275c-1.61,0-2.52,1.19-2.52,2.415
		c0,0.49,0.174,0.98,0.42,1.295c0.035,0.07,0.035,0.104,0.035,0.175c-0.035,0.176-0.141,0.561-0.141,0.63
		c-0.07,0.105-0.141,0.141-0.245,0.07c-0.7-0.314-1.12-1.364-1.12-2.17c0-1.75,1.295-3.395,3.711-3.395
		c1.959,0,3.465,1.4,3.465,3.22c0,1.925-1.226,3.5-2.905,3.5c-0.56,0-1.085-0.28-1.296-0.631c0,0-0.279,1.086-0.35,1.33
		c-0.14,0.49-0.609,1.342-0.699,1.471S7.236,13.604,7.157,13.341z"/>
</g>
</svg>
