<?xml version="1.0" encoding="utf-8"?>
<!-- Generator: Adobe Illustrator 16.0.0, SVG Export Plug-In . SVG Version: 6.00 Build 0)  -->
<!DOCTYPE svg PUBLIC "-//W3C//DTD SVG 1.1//EN" "http://www.w3.org/Graphics/SVG/1.1/DTD/svg11.dtd">
<svg version="1.1" id="Layer_1" xmlns="http://www.w3.org/2000/svg" xmlns:xlink="http://www.w3.org/1999/xlink" x="0px" y="0px"
	 width="18px" height="18px" viewBox="0 0 18 18" enable-background="new 0 0 18 18" xml:space="preserve">
<path opacity="0.5" fill="#FFFFFF" enable-background="new    " d="M9,1C4.582,1,1,4.582,1,9c0,4.418,3.582,8,8,8
	c4.418,0,8-3.582,8-8C17,4.582,13.418,1,9,1z M12.783,11.241C11.693,12.336,9,13.891,9,13.891s-2.692-1.555-3.782-2.649
	C4.392,10.41,3.854,9.742,3.854,8.623c0-1.688,1.244-3.057,2.778-3.057c1.011,0,1.885,0.602,2.369,1.489
	c0.485-0.888,1.359-1.489,2.369-1.489c1.535,0,2.777,1.369,2.777,3.057C14.146,9.742,13.607,10.41,12.783,11.241z"/>
</svg>
