<?xml version="1.0" encoding="utf-8"?>
<!-- Generator: Adobe Illustrator 16.0.0, SVG Export Plug-In . SVG Version: 6.00 Build 0)  -->
<!DOCTYPE svg PUBLIC "-//W3C//DTD SVG 1.1//EN" "http://www.w3.org/Graphics/SVG/1.1/DTD/svg11.dtd">
<svg version="1.1" id="Layer_1" xmlns="http://www.w3.org/2000/svg" xmlns:xlink="http://www.w3.org/1999/xlink" x="0px" y="0px"
	 width="50px" height="50px" viewBox="0 0 50 50" enable-background="new 0 0 50 50" xml:space="preserve">
<g>
	<path fill="none" stroke="#A9B9B9" stroke-width="2" stroke-linecap="round" stroke-linejoin="round" stroke-miterlimit="10" d="
		M42.396,27.463c0.625,0.375,0.623,0.982,0,1.357l-16.264,9.758c-0.625,0.375-1.638,0.375-2.263,0L7.605,28.82
		c-0.625-0.375-0.625-0.982,0-1.357l16.264-9.758c0.624-0.375,1.638-0.375,2.263,0L42.396,27.463z"/>
	<g>
		<g>
			<path fill="none" stroke="#A9B9B9" stroke-width="2" stroke-linecap="round" stroke-linejoin="round" stroke-miterlimit="10" d="
				M31.138,14.425l-5.006-3.003c-0.625-0.375-1.639-0.375-2.263,0l-5.006,3.003"/>
			<path fill="none" stroke="#A9B9B9" stroke-width="2" stroke-linecap="round" stroke-linejoin="round" stroke-miterlimit="10" d="
				M18.863,29.292l5.006,3.003c0.625,0.375,1.638,0.375,2.263,0l5.006-3.003"/>
		</g>
		<path fill="none" stroke="#A9B9B9" stroke-width="2" stroke-linecap="round" stroke-linejoin="round" stroke-miterlimit="10" d="
			M13.167,17.843L7.605,21.18c-0.625,0.375-0.625,0.983,0,1.358l5.562,3.337"/>
		<path fill="none" stroke="#A9B9B9" stroke-width="2" stroke-linecap="round" stroke-linejoin="round" stroke-miterlimit="10" d="
			M36.834,17.843l5.561,3.336c0.625,0.375,0.625,0.983,0,1.358l-5.561,3.337"/>
	</g>
</g>
</svg>
