<?xml version="1.0" encoding="utf-8"?>
<!-- Generator: Adobe Illustrator 16.0.0, SVG Export Plug-In . SVG Version: 6.00 Build 0)  -->
<!DOCTYPE svg PUBLIC "-//W3C//DTD SVG 1.1//EN" "http://www.w3.org/Graphics/SVG/1.1/DTD/svg11.dtd">
<svg version="1.1" id="Layer_1" xmlns="http://www.w3.org/2000/svg" xmlns:xlink="http://www.w3.org/1999/xlink" x="0px" y="0px"
	 width="24px" height="24px" viewBox="13 13 24 24" enable-background="new 13 13 24 24" xml:space="preserve">
<g>
	<g>
		<path fill="#A9B9B9" d="M24.747,33c-3.88,0-7.037-3.157-7.037-7.037s3.157-7.037,7.037-7.037c3.88,0,7.038,3.157,7.038,7.037
			C31.784,29.843,28.627,33,24.747,33z M24.747,20.671c-2.917,0-5.292,2.374-5.292,5.292c0,2.918,2.374,5.292,5.292,5.292
			s5.292-2.374,5.292-5.292C30.038,23.045,27.664,20.671,24.747,20.671z"/>
	</g>
	<g>
		<path fill="#A9B9B9" d="M24.774,27.545c-0.167,0-0.334-0.048-0.478-0.143c-0.247-0.161-0.396-0.436-0.396-0.73v-4.364h1.746v3.03
			l2.27-0.993l0.698,1.599l-3.491,1.527C25.012,27.521,24.893,27.545,24.774,27.545z"/>
	</g>
	<g>
		<g>
			<path fill="#A9B9B9" d="M18.582,25.963c0-2.849,1.935-5.239,4.561-5.946l-6.333,1.746c-0.723,0-1.309,0.586-1.309,1.309v5.456
				c0,0.723,0.586,1.309,1.309,1.309l5.411,1.746C20.077,30.616,18.582,28.467,18.582,25.963z"/>
		</g>
		<g>
			<path fill="#A9B9B9" d="M33.065,21.763l-6.715-1.746c2.625,0.707,4.561,3.098,4.561,5.946c0,2.504-1.495,4.653-3.638,5.619
				l5.792-1.746c0.723,0,1.31-0.586,1.31-1.309v-5.456C34.375,22.349,33.788,21.763,33.065,21.763z"/>
		</g>
	</g>
</g>
</svg>
