<?xml version="1.0" encoding="utf-8"?>
<!-- Generator: Adobe Illustrator 16.0.0, SVG Export Plug-In . SVG Version: 6.00 Build 0)  -->
<!DOCTYPE svg PUBLIC "-//W3C//DTD SVG 1.1//EN" "http://www.w3.org/Graphics/SVG/1.1/DTD/svg11.dtd">
<svg version="1.1" id="Layer_1" xmlns="http://www.w3.org/2000/svg" xmlns:xlink="http://www.w3.org/1999/xlink" x="0px" y="0px"
	 width="100px" height="100px" viewBox="0 0 100 100" enable-background="new 0 0 100 100" xml:space="preserve">
<g>
	<g>
		<path fill="#35404C" d="M18.068,91.074H55.95V80.463c0,0-9.354-0.232-15.679-10.315c-6.78,3.934-13.728,7.984-16.175,9.535
			C18.068,83.504,18.068,91.074,18.068,91.074z"/>
		<path fill="#35404C" d="M81.932,91.074H44.05V80.463c0,0,9.354-0.232,15.679-10.315c6.78,3.934,13.729,7.984,16.175,9.535
			C81.932,83.504,81.932,91.074,81.932,91.074z"/>
	</g>
	<g>
		<path fill="#35404C" d="M50,8.926c-15.24,0-27.592,12.355-27.592,27.594c0,8.178,0,37.578,0,37.578s17.332,0.066,25.509-8.11
			c-7.944-1.027-14.106-7.82-14.106-16.039c0-3.637,0-11.403,0-11.403s12.717,1.951,19.59-9.886
			c4.819,7.862,12.79,7.537,12.79,7.537s0,9.817,0,13.752c0,8.231-6.181,15.033-14.144,16.044
			c6.357,6.355,25.545,8.105,25.545,8.105s0-29.05,0-37.578C77.592,21.281,65.24,8.926,50,8.926z"/>
		<path fill="#35404C" d="M66.19,49.948c0,8.926-7.264,16.188-16.19,16.188s-16.189-7.263-16.189-16.188
			c0-3.529-0.958-9.452-0.958-9.452c-1.553,2.806-2.442,6.026-2.442,9.452c0,10.802,8.787,19.589,19.59,19.589
			s19.59-8.787,19.59-19.589c0-3.426-0.89-6.646-2.441-9.452C67.148,40.496,66.19,46.419,66.19,49.948z"/>
		<g>
			<path fill="#35404C" d="M52.606,59.607v-3.399c5.932,0,10.468-2.736,13.48-8.132c2.323-4.159,2.832-8.331,2.838-8.372
				l3.376,0.395C72.278,40.293,69.819,59.607,52.606,59.607z"/>
		</g>
		<circle fill="#35404C" cx="50" cy="58.384" r="3.858"/>
	</g>
</g>
</svg>
